\relax 
\providecommand\hyper@newdestlabel[2]{}
\providecommand\HyperFirstAtBeginDocument{\AtBeginDocument}
\HyperFirstAtBeginDocument{\ifx\hyper@anchor\@undefined
\global\let\oldcontentsline\contentsline
\gdef\contentsline#1#2#3#4{\oldcontentsline{#1}{#2}{#3}}
\global\let\oldnewlabel\newlabel
\gdef\newlabel#1#2{\newlabelxx{#1}#2}
\gdef\newlabelxx#1#2#3#4#5#6{\oldnewlabel{#1}{{#2}{#3}}}
\AtEndDocument{\ifx\hyper@anchor\@undefined
\let\contentsline\oldcontentsline
\let\newlabel\oldnewlabel
\fi}
\fi}
\global\let\hyper@last\relax 
\gdef\HyperFirstAtBeginDocument#1{#1}
\providecommand\HyField@AuxAddToFields[1]{}
\providecommand\HyField@AuxAddToCoFields[2]{}
\catcode `"\active 
\catcode `<\active 
\catcode `>\active 
\@nameuse{es@quoting}
\@writefile{toc}{\beamer@endinputifotherversion {3.24pt}}
\@writefile{nav}{\beamer@endinputifotherversion {3.24pt}}
\select@language{spanish}
\@writefile{toc}{\select@language{spanish}}
\@writefile{lof}{\select@language{spanish}}
\@writefile{lot}{\select@language{spanish}}
\@writefile{nav}{\headcommand {\slideentry {0}{0}{1}{1/1}{}{0}}}
\@writefile{nav}{\headcommand {\beamer@framepages {1}{1}}}
\@writefile{nav}{\headcommand {\slideentry {0}{0}{2}{2/2}{}{0}}}
\@writefile{nav}{\headcommand {\beamer@framepages {2}{2}}}
\@writefile{toc}{\beamer@sectionintoc {1}{Introducci\IeC {\'o}n}{3}{0}{1}}
\@writefile{nav}{\headcommand {\sectionentry {1}{Introducci\IeC {\'o}n}{3}{Introducci\IeC {\'o}n}{0}}}
\@writefile{nav}{\headcommand {\beamer@sectionpages {1}{2}}}
\@writefile{nav}{\headcommand {\beamer@subsectionpages {1}{2}}}
\@writefile{nav}{\headcommand {\slideentry {1}{0}{3}{3/3}{}{0}}}
\@writefile{nav}{\headcommand {\beamer@framepages {3}{3}}}
\@writefile{nav}{\headcommand {\slideentry {1}{0}{4}{4/4}{}{0}}}
\@writefile{nav}{\headcommand {\beamer@framepages {4}{4}}}
\@writefile{toc}{\beamer@sectionintoc {2}{Vista L\IeC {\'o}gica}{5}{0}{2}}
\@writefile{nav}{\headcommand {\sectionentry {2}{Vista L\IeC {\'o}gica}{5}{Vista L\IeC {\'o}gica}{0}}}
\@writefile{nav}{\headcommand {\beamer@sectionpages {3}{4}}}
\@writefile{nav}{\headcommand {\beamer@subsectionpages {3}{4}}}
\@writefile{nav}{\headcommand {\slideentry {2}{0}{5}{5/5}{}{0}}}
\@writefile{nav}{\headcommand {\beamer@framepages {5}{5}}}
\@writefile{nav}{\headcommand {\slideentry {2}{0}{6}{6/6}{}{0}}}
\@writefile{nav}{\headcommand {\beamer@framepages {6}{6}}}
\@writefile{toc}{\beamer@sectionintoc {3}{Vista de Proceso}{7}{0}{3}}
\@writefile{nav}{\headcommand {\sectionentry {3}{Vista de Proceso}{7}{Vista de Proceso}{0}}}
\@writefile{nav}{\headcommand {\beamer@sectionpages {5}{6}}}
\@writefile{nav}{\headcommand {\beamer@subsectionpages {5}{6}}}
\@writefile{nav}{\headcommand {\slideentry {3}{0}{7}{7/7}{}{0}}}
\@writefile{nav}{\headcommand {\beamer@framepages {7}{7}}}
\@writefile{nav}{\headcommand {\slideentry {3}{0}{8}{8/8}{}{0}}}
\@writefile{nav}{\headcommand {\beamer@framepages {8}{8}}}
\@writefile{toc}{\beamer@sectionintoc {4}{Vista de Desarrollo}{9}{0}{4}}
\@writefile{nav}{\headcommand {\sectionentry {4}{Vista de Desarrollo}{9}{Vista de Desarrollo}{0}}}
\@writefile{nav}{\headcommand {\beamer@sectionpages {7}{8}}}
\@writefile{nav}{\headcommand {\beamer@subsectionpages {7}{8}}}
\@writefile{nav}{\headcommand {\slideentry {4}{0}{9}{9/9}{}{0}}}
\@writefile{nav}{\headcommand {\beamer@framepages {9}{9}}}
\@writefile{nav}{\headcommand {\slideentry {4}{0}{10}{10/10}{}{0}}}
\@writefile{nav}{\headcommand {\beamer@framepages {10}{10}}}
\@writefile{toc}{\beamer@sectionintoc {5}{Escenarios}{11}{0}{5}}
\@writefile{nav}{\headcommand {\sectionentry {5}{Escenarios}{11}{Escenarios}{0}}}
\@writefile{nav}{\headcommand {\beamer@sectionpages {9}{10}}}
\@writefile{nav}{\headcommand {\beamer@subsectionpages {9}{10}}}
\@writefile{nav}{\headcommand {\slideentry {5}{0}{11}{11/11}{}{0}}}
\@writefile{nav}{\headcommand {\beamer@framepages {11}{11}}}
\@writefile{nav}{\headcommand {\slideentry {5}{0}{12}{12/12}{}{0}}}
\@writefile{nav}{\headcommand {\beamer@framepages {12}{12}}}
\@writefile{nav}{\headcommand {\slideentry {5}{0}{13}{13/13}{}{0}}}
\@writefile{nav}{\headcommand {\beamer@framepages {13}{13}}}
\@writefile{nav}{\headcommand {\slideentry {5}{0}{14}{14/14}{}{0}}}
\@writefile{nav}{\headcommand {\beamer@framepages {14}{14}}}
\@writefile{nav}{\headcommand {\slideentry {5}{0}{15}{15/15}{}{0}}}
\@writefile{nav}{\headcommand {\beamer@framepages {15}{15}}}
\@writefile{nav}{\headcommand {\slideentry {5}{0}{16}{16/16}{}{0}}}
\@writefile{nav}{\headcommand {\beamer@framepages {16}{16}}}
\@writefile{nav}{\headcommand {\slideentry {5}{0}{17}{17/17}{}{0}}}
\@writefile{nav}{\headcommand {\beamer@framepages {17}{17}}}
\@writefile{nav}{\headcommand {\slideentry {5}{0}{18}{18/18}{}{0}}}
\@writefile{nav}{\headcommand {\beamer@framepages {18}{18}}}
\@writefile{nav}{\headcommand {\slideentry {5}{0}{19}{19/19}{}{0}}}
\@writefile{nav}{\headcommand {\beamer@framepages {19}{19}}}
\@writefile{nav}{\headcommand {\slideentry {5}{0}{20}{20/20}{}{0}}}
\@writefile{nav}{\headcommand {\beamer@framepages {20}{20}}}
\@writefile{nav}{\headcommand {\slideentry {5}{0}{21}{21/21}{}{0}}}
\@writefile{nav}{\headcommand {\beamer@framepages {21}{21}}}
\@writefile{nav}{\headcommand {\slideentry {5}{0}{22}{22/22}{}{0}}}
\@writefile{nav}{\headcommand {\beamer@framepages {22}{22}}}
\@writefile{nav}{\headcommand {\slideentry {5}{0}{23}{23/23}{}{0}}}
\@writefile{nav}{\headcommand {\beamer@framepages {23}{23}}}
\@writefile{nav}{\headcommand {\slideentry {5}{0}{24}{24/24}{}{0}}}
\@writefile{nav}{\headcommand {\beamer@framepages {24}{24}}}
\@writefile{nav}{\headcommand {\slideentry {5}{0}{25}{25/25}{}{0}}}
\@writefile{nav}{\headcommand {\beamer@framepages {25}{25}}}
\@writefile{nav}{\headcommand {\slideentry {5}{0}{26}{26/26}{}{0}}}
\@writefile{nav}{\headcommand {\beamer@framepages {26}{26}}}
\@writefile{toc}{\beamer@sectionintoc {6}{Tecnolog\IeC {\'\i }as}{27}{0}{6}}
\@writefile{nav}{\headcommand {\sectionentry {6}{Tecnolog\IeC {\'\i }as}{27}{Tecnolog\IeC {\'\i }as}{0}}}
\@writefile{nav}{\headcommand {\beamer@sectionpages {11}{26}}}
\@writefile{nav}{\headcommand {\beamer@subsectionpages {11}{26}}}
\@writefile{nav}{\headcommand {\slideentry {6}{0}{27}{27/27}{}{0}}}
\@writefile{nav}{\headcommand {\beamer@framepages {27}{27}}}
\@writefile{nav}{\headcommand {\slideentry {6}{0}{28}{28/28}{}{0}}}
\@writefile{nav}{\headcommand {\beamer@framepages {28}{28}}}
\@writefile{nav}{\headcommand {\slideentry {6}{0}{29}{29/29}{}{0}}}
\@writefile{nav}{\headcommand {\beamer@framepages {29}{29}}}
\@writefile{nav}{\headcommand {\slideentry {6}{0}{30}{30/30}{}{0}}}
\@writefile{nav}{\headcommand {\beamer@framepages {30}{30}}}
\@writefile{nav}{\headcommand {\slideentry {6}{0}{31}{31/31}{}{0}}}
\@writefile{nav}{\headcommand {\beamer@framepages {31}{31}}}
\@writefile{nav}{\headcommand {\slideentry {6}{0}{32}{32/32}{}{0}}}
\@writefile{nav}{\headcommand {\beamer@framepages {32}{32}}}
\@writefile{nav}{\headcommand {\slideentry {6}{0}{33}{33/33}{}{0}}}
\@writefile{nav}{\headcommand {\beamer@framepages {33}{33}}}
\@writefile{nav}{\headcommand {\slideentry {6}{0}{34}{34/34}{}{0}}}
\@writefile{nav}{\headcommand {\beamer@framepages {34}{34}}}
\@writefile{nav}{\headcommand {\slideentry {6}{0}{35}{35/35}{}{0}}}
\@writefile{nav}{\headcommand {\beamer@framepages {35}{35}}}
\@writefile{toc}{\beamer@sectionintoc {7}{Herramientas}{36}{0}{7}}
\@writefile{nav}{\headcommand {\sectionentry {7}{Herramientas}{36}{Herramientas}{0}}}
\@writefile{nav}{\headcommand {\beamer@sectionpages {27}{35}}}
\@writefile{nav}{\headcommand {\beamer@subsectionpages {27}{35}}}
\@writefile{nav}{\headcommand {\slideentry {7}{0}{36}{36/36}{}{0}}}
\@writefile{nav}{\headcommand {\beamer@framepages {36}{36}}}
\@writefile{nav}{\headcommand {\slideentry {7}{0}{37}{37/37}{}{0}}}
\@writefile{nav}{\headcommand {\beamer@framepages {37}{37}}}
\@writefile{nav}{\headcommand {\slideentry {7}{0}{38}{38/38}{}{0}}}
\@writefile{nav}{\headcommand {\beamer@framepages {38}{38}}}
\@writefile{toc}{\beamer@sectionintoc {8}{Hardware}{39}{0}{8}}
\@writefile{nav}{\headcommand {\sectionentry {8}{Hardware}{39}{Hardware}{0}}}
\@writefile{nav}{\headcommand {\beamer@sectionpages {36}{38}}}
\@writefile{nav}{\headcommand {\beamer@subsectionpages {36}{38}}}
\@writefile{nav}{\headcommand {\slideentry {8}{0}{39}{39/39}{}{0}}}
\@writefile{nav}{\headcommand {\beamer@framepages {39}{39}}}
\@writefile{toc}{\beamer@sectionintoc {9}{Planificaci\IeC {\'o}n}{40}{0}{9}}
\@writefile{nav}{\headcommand {\sectionentry {9}{Planificaci\IeC {\'o}n}{40}{Planificaci\IeC {\'o}n}{0}}}
\@writefile{nav}{\headcommand {\beamer@sectionpages {39}{39}}}
\@writefile{nav}{\headcommand {\beamer@subsectionpages {39}{39}}}
\@writefile{nav}{\headcommand {\slideentry {9}{0}{40}{40/40}{}{0}}}
\@writefile{nav}{\headcommand {\beamer@framepages {40}{40}}}
\@writefile{toc}{\beamer@sectionintoc {10}{M\IeC {\'e}tricas de Gesti\IeC {\'o}n}{41}{0}{10}}
\@writefile{nav}{\headcommand {\sectionentry {10}{M\IeC {\'e}tricas de Gesti\IeC {\'o}n}{41}{M\IeC {\'e}tricas de Gesti\IeC {\'o}n}{0}}}
\@writefile{nav}{\headcommand {\beamer@sectionpages {40}{40}}}
\@writefile{nav}{\headcommand {\beamer@subsectionpages {40}{40}}}
\@writefile{nav}{\headcommand {\slideentry {10}{0}{41}{41/41}{}{0}}}
\@writefile{nav}{\headcommand {\beamer@framepages {41}{41}}}
\@writefile{nav}{\headcommand {\slideentry {10}{0}{42}{42/42}{}{0}}}
\@writefile{nav}{\headcommand {\beamer@framepages {42}{42}}}
\@writefile{nav}{\headcommand {\slideentry {10}{0}{43}{43/43}{}{0}}}
\@writefile{nav}{\headcommand {\beamer@framepages {43}{43}}}
\@writefile{nav}{\headcommand {\slideentry {10}{0}{44}{44/44}{}{0}}}
\@writefile{nav}{\headcommand {\beamer@framepages {44}{44}}}
\@writefile{toc}{\beamer@sectionintoc {11}{Minutas}{45}{0}{11}}
\@writefile{nav}{\headcommand {\sectionentry {11}{Minutas}{45}{Minutas}{0}}}
\@writefile{nav}{\headcommand {\beamer@sectionpages {41}{44}}}
\@writefile{nav}{\headcommand {\beamer@subsectionpages {41}{44}}}
\@writefile{nav}{\headcommand {\slideentry {11}{0}{45}{45/45}{}{0}}}
\@writefile{nav}{\headcommand {\beamer@framepages {45}{45}}}
\@writefile{nav}{\headcommand {\slideentry {11}{0}{46}{46/46}{}{0}}}
\@writefile{nav}{\headcommand {\beamer@framepages {46}{46}}}
\@writefile{nav}{\headcommand {\slideentry {11}{0}{47}{47/47}{}{0}}}
\@writefile{nav}{\headcommand {\beamer@framepages {47}{47}}}
\@writefile{nav}{\headcommand {\slideentry {11}{0}{48}{48/48}{}{0}}}
\@writefile{nav}{\headcommand {\beamer@framepages {48}{48}}}
\@writefile{nav}{\headcommand {\slideentry {11}{0}{49}{49/49}{}{0}}}
\@writefile{nav}{\headcommand {\beamer@framepages {49}{49}}}
\@writefile{nav}{\headcommand {\slideentry {11}{0}{50}{50/50}{}{0}}}
\@writefile{nav}{\headcommand {\beamer@framepages {50}{50}}}
\@writefile{nav}{\headcommand {\slideentry {11}{0}{51}{51/51}{}{0}}}
\@writefile{nav}{\headcommand {\beamer@framepages {51}{51}}}
\@writefile{toc}{\beamer@sectionintoc {12}{Conclusiones}{52}{0}{12}}
\@writefile{nav}{\headcommand {\sectionentry {12}{Conclusiones}{52}{Conclusiones}{0}}}
\@writefile{nav}{\headcommand {\beamer@sectionpages {45}{51}}}
\@writefile{nav}{\headcommand {\beamer@subsectionpages {45}{51}}}
\@writefile{nav}{\headcommand {\slideentry {12}{0}{52}{52/52}{}{0}}}
\@writefile{nav}{\headcommand {\beamer@framepages {52}{52}}}
\@writefile{nav}{\headcommand {\slideentry {12}{0}{53}{53/53}{}{0}}}
\@writefile{nav}{\headcommand {\beamer@framepages {53}{53}}}
\@writefile{nav}{\headcommand {\beamer@partpages {1}{53}}}
\@writefile{nav}{\headcommand {\beamer@subsectionpages {52}{53}}}
\@writefile{nav}{\headcommand {\beamer@sectionpages {52}{53}}}
\@writefile{nav}{\headcommand {\beamer@documentpages {53}}}
\@writefile{nav}{\headcommand {\def \inserttotalframenumber {53}}}
